
<svg width="21px" height="20px" viewBox="15 52 21 20" version="1.1" xmlns="http://www.w3.org/2000/svg" xmlns:xlink="http://www.w3.org/1999/xlink">
    <!-- Generator: Sketch 3.8.3 (29802) - http://www.bohemiancoding.com/sketch -->
    <desc>Created with Sketch.</desc>
    <defs></defs>
    <g id="icon/category/small-activities" stroke="none" stroke-width="1" fill="none" fill-rule="evenodd" transform="translate(15.000000, 52.000000)">
        <path d="M10.2907635,6.75070555 L10.2945393,6.75065851 C10.2945393,6.84680151 10.2940673,6.9429445 10.2935953,7.03904045 C10.2931234,7.10710254 10.2912355,7.17511759 10.2879317,7.24308561 C10.2784924,7.42126058 10.2581978,7.59896519 10.2246882,7.77431797 C10.1897626,7.95790216 10.1406781,8.13889934 10.0760186,8.31420508 C9.99531233,8.53226717 9.88959177,8.74143932 9.75885698,8.93405456 C9.68334229,9.0453904 9.59933221,9.15117592 9.50729869,9.2494826 C9.47709281,9.28165569 9.44641497,9.31302916 9.4147932,9.34350894 C9.39638649,9.36072437 9.37797979,9.37737535 9.36004505,9.39477893 C9.35249358,9.40268109 9.34494212,9.41067733 9.33739065,9.41886171 C9.30812871,9.45197554 9.28169857,9.48767639 9.2599881,9.52619944 C9.22364666,9.59059266 9.19863242,9.6616651 9.18777718,9.73485419 C9.18211358,9.77064911 9.18022571,9.80667921 9.18069768,9.84285042 L9.18116965,9.8523048 C9.18116965,9.8523048 9.37609192,15.8990122 9.45207857,18.2708373 C9.46010201,18.5173095 9.36759652,18.7565381 9.19580062,18.9340546 C9.02400471,19.111524 8.78754936,19.2122295 8.54023877,19.2132643 C8.29245621,19.2142521 8.02485105,19.215334 7.77612456,19.2163217 C7.52598217,19.2173565 7.28669502,19.1165099 7.11301124,18.937206 C6.93932747,18.7579022 6.84682198,18.5157103 6.85673329,18.2667451 C6.94876681,15.7896519 7.05495933,11.8611007 7.09696437,9.86015992 C7.09696437,9.84887112 7.09696437,9.83762935 7.09649241,9.82634055 C7.09460454,9.79016933 7.09035684,9.7542333 7.0823334,9.71881468 C7.06298277,9.63231421 7.02475346,9.55028222 6.97094925,9.47991533 C6.95537434,9.4598777 6.9388555,9.44082785 6.92139273,9.42285983 C6.90157013,9.40310442 6.88080359,9.38476011 6.86098099,9.36566322 C6.84304625,9.34821261 6.84304625,9.34821261 6.82511151,9.33047977 C6.74534913,9.24901223 6.67077838,9.16246472 6.60328713,9.07041392 C6.55089882,8.99849483 6.50181427,8.92370649 6.45697743,8.8466604 C6.23609698,8.46768579 6.11338562,8.03838194 6.06005337,7.60526811 C6.0383429,7.42699906 6.02795963,7.2476952 6.02654373,7.06815616 L6.02654373,7.00747883 L6.02040816,7.00747883 L6.02040816,2.26354657 L6.53485195,2.26354657 L6.53485195,6.42347131 C6.53485195,6.51763876 6.57260929,6.60790216 6.63962857,6.67422389 C6.70664785,6.74054563 6.79773744,6.77742239 6.89213079,6.77671684 L6.89307473,6.77671684 C7.08610914,6.77521167 7.24185817,6.61876764 7.24185817,6.42629351 L7.24185817,2.25437441 L7.75677392,2.25437441 L7.75677392,6.39943556 C7.75677392,6.49746002 7.79594717,6.59143932 7.86579825,6.66053622 C7.93564933,6.72958608 8.03004268,6.76801505 8.12868374,6.76726246 C8.12868374,6.76726246 8.12915571,6.76726246 8.12915571,6.76721543 C8.33446125,6.76566322 8.50012159,6.59934149 8.50012159,6.39473189 L8.50012159,2.25437441 L9.01456537,2.25437441 L9.01456537,6.37841016 C9.01456537,6.479492 9.05515452,6.57634055 9.12736543,6.64750706 C9.19910438,6.7187206 9.29680151,6.75832549 9.39780239,6.75752587 L9.39827436,6.75752587 C9.60735564,6.75592662 9.77631975,6.58645343 9.77631975,6.37793979 L9.77631975,2.25437441 L10.2907635,2.25437441 L10.2907635,6.75070555 Z M13.6917561,18.2754468 C13.6917561,18.5175917 13.5950029,18.7498589 13.423207,18.9211195 C13.2514111,19.0923801 13.0182595,19.1885701 12.7756686,19.1885701 L12.4806894,19.1885701 C11.974741,19.1885701 11.5646019,18.7797742 11.5646019,18.2754468 L11.5646019,1 C11.7382856,1.09981185 11.9119694,1.19962371 12.0856532,1.2994826 C12.1757988,1.35324553 12.2621687,1.41345249 12.3452349,1.47695202 C12.428773,1.54035748 12.5090074,1.60729069 12.5878258,1.67662277 C12.6916585,1.76834431 12.7907715,1.865381 12.8861088,1.96599247 C13.0343064,2.1229539 13.1730646,2.28936971 13.3009676,2.46317027 C13.6960038,2.99868297 13.991927,3.60348071 14.1929848,4.23626529 C14.3345748,4.68071496 14.4299121,5.13918156 14.4860762,5.6019285 C14.5181699,5.86594544 14.5370486,6.13151458 14.545072,6.39736595 C14.5512076,6.60856068 14.5497917,6.81999059 14.5464879,7.03123236 C14.5412963,7.41566322 14.5261934,7.80009407 14.4969314,8.18349012 C14.4714452,8.52394167 14.4346318,8.86382879 14.3794117,9.2008937 C14.3298552,9.50362183 14.2661397,9.80498589 14.1750501,10.0981656 C14.1184141,10.2805738 14.0509228,10.4604421 13.9645529,10.6310442 C13.892342,10.7738946 13.8059721,10.9105833 13.6955318,11.0277046 L13.6917561,11.0318909 L13.6917561,18.2754468 Z" id="icon-small-restaurants" fill="#FFA81C"></path>
        <rect id="Rectangle-10" x="0" y="0" width="20.0680272" height="20"></rect>
    </g>
</svg>