
<svg width="21px" height="20px" viewBox="15 174 21 20" version="1.1" xmlns="http://www.w3.org/2000/svg" xmlns:xlink="http://www.w3.org/1999/xlink">
    <!-- Generator: Sketch 3.8.3 (29802) - http://www.bohemiancoding.com/sketch -->
    <desc>Created with Sketch.</desc>
    <defs></defs>
    <g id="icon/category/small-services" stroke="none" stroke-width="1" fill="none" fill-rule="evenodd" transform="translate(15.000000, 174.000000)">
        <rect id="bounds" x="0" y="0" width="20.0680272" height="20"></rect>
        <path d="M12.9704677,7.42763238 L13.0793367,7.49093238 L12.9714711,7.49248238 L12.9704677,7.42763238 Z M6.19048469,6.66418238 C6.19098639,6.61828238 6.1919898,6.57243238 6.1934949,6.52653238 C6.21155612,5.97393238 6.26222789,5.42193238 6.35002551,4.87593238 C6.35303571,4.84593238 6.35654762,4.81603238 6.36005952,4.78608238 C6.38414116,4.59908238 6.42076531,4.41418238 6.47143707,4.23253238 C6.65054422,3.59483238 6.99170068,3.00043238 7.46580782,2.53513238 C7.56915816,2.43358238 7.67903061,2.33818238 7.79392007,2.24993238 C7.98556973,2.10313238 8.19227041,1.97618238 8.4100085,1.87148238 C8.74715136,1.70913238 9.10937925,1.60158238 9.47963435,1.54618238 C9.68081633,1.51603238 9.8845068,1.50183238 10.0881973,1.50003238 C10.1152891,1.49993238 10.1428827,1.50008238 10.1699745,1.50023238 C10.3611224,1.50323238 10.5517687,1.51478238 10.7414116,1.53963238 C11.0579847,1.58118238 11.3705442,1.65753238 11.6680527,1.77388238 C11.9153912,1.87058238 12.1521939,1.99513238 12.3704337,2.14638238 C12.6328231,2.32868238 12.8681207,2.54933238 13.0672959,2.79938238 C13.2830272,3.07058238 13.4551105,3.37528238 13.5815391,3.69743238 C13.6678316,3.91613238 13.732551,4.14298238 13.7767007,4.37358238 C13.801284,4.50063238 13.8188435,4.62868238 13.8318878,4.75738238 L13.8328912,4.76703238 C13.8444303,4.82838238 13.8554677,4.88988238 13.8660034,4.95143238 C13.875034,5.00353238 13.8835629,5.05568238 13.8920918,5.10788238 C13.9517942,5.48893238 13.9949405,5.87218238 14.0230357,6.25678238 C14.0360799,6.43688238 14.0461139,6.61718238 14.0521344,6.79763238 L12.9985629,6.18293238 C12.9759864,6.17098238 12.9544133,6.15833238 12.9318367,6.14718238 L12.9182908,6.14063238 C12.8947109,5.86778238 12.862602,5.59553238 12.8209609,5.32483238 C12.7998895,5.18843238 12.7758078,5.05268238 12.7502211,4.91713238 C12.7472109,4.88863238 12.7447024,4.86008238 12.7421939,4.83158238 C12.7316582,4.73743238 12.7181122,4.64383238 12.6990476,4.55098238 C12.6473724,4.29603238 12.5610799,4.04743238 12.4371599,3.81813238 C12.354881,3.66558238 12.2560459,3.52178238 12.1416582,3.39148238 C12.0558673,3.29433238 11.9620493,3.20478238 11.8607058,3.12433238 C11.6043367,2.92063238 11.3033163,2.77898238 10.9872449,2.69473238 C10.7308759,2.62638238 10.4654762,2.59453238 10.2005782,2.58898238 C10.019966,2.58518238 9.83885204,2.59403238 9.6597449,2.61958238 C9.40237245,2.65633238 9.14951531,2.72783238 8.91371599,2.83758238 C8.80886054,2.88643238 8.70701531,2.94278238 8.61018707,3.00608238 C8.52489796,3.06168238 8.44312075,3.12278238 8.36535714,3.18863238 C7.95697279,3.53533238 7.6669898,4.01203238 7.5230017,4.52538238 C7.49390306,4.62943238 7.47082483,4.73518238 7.45426871,4.84188238 C7.4452381,4.89953238 7.43921769,4.95743238 7.43319728,5.01548238 C7.42366497,5.07743238 7.41363095,5.13948238 7.40460034,5.20158238 C7.36446429,5.47948238 7.33386054,5.75853238 7.31278912,6.03853238 C7.31028061,6.07358238 7.30777211,6.10868238 7.30526361,6.14378238 L6.19048469,6.66418238 Z M16.8395833,13.6508324 L16.5781973,18.0033324 L3.89721088,18.0033324 L3.5425085,13.6508324 L16.8395833,13.6508324 Z M14.4344303,8.21013238 L17.2319133,7.12198238 L16.9053061,12.5626824 L3.45370748,12.5626824 L3.01020408,7.12198238 L5.57489796,8.21013238 L7.90630102,7.12198238 L10.2377041,8.21013238 L12.5691071,7.12198238 L14.4344303,8.21013238 Z" id="Fill-19" fill="#E072BE"></path>
    </g>
</svg>