
<svg width="29px" height="30px" viewBox="703 72 29 30" version="1.1" xmlns="http://www.w3.org/2000/svg" xmlns:xlink="http://www.w3.org/1999/xlink">
    <!-- Generator: Sketch 39.1 (31720) - http://www.bohemiancoding.com/sketch -->
    <desc>Created with Sketch.</desc>
    <defs></defs>
    <g id="fa-external-link" stroke="none" stroke-width="1" fill="none" fill-rule="evenodd" transform="translate(703.000000, 72.021422)">
        <rect id="Rectangle-642" fill-opacity="0.730000019" fill="#000000" x="0" y="0" width="28.4121212" height="28.4121212" rx="4"></rect>
        <path d="M19.3853652,14.5008788 C19.3853652,14.355211 19.272068,14.2419139 19.1264003,14.2419139 L18.6084704,14.2419139 C18.4628027,14.2419139 18.3495055,14.355211 18.3495055,14.5008788 L18.3495055,17.0905279 C18.3495055,17.8026814 17.7668345,18.3853525 17.054681,18.3853525 L10.3215933,18.3853525 C9.60943979,18.3853525 9.02676874,17.8026814 9.02676874,17.0905279 L9.02676874,10.3574402 C9.02676874,9.64528673 9.60943979,9.06261568 10.3215933,9.06261568 L16.0188213,9.06261568 C16.1644891,9.06261568 16.2777862,8.94931853 16.2777862,8.80365077 L16.2777862,8.28572095 C16.2777862,8.14005318 16.1644891,8.02675603 16.0188213,8.02675603 L10.3215933,8.02675603 C9.03486139,8.02675603 7.99090909,9.07070833 7.99090909,10.3574402 L7.99090909,17.0905279 C7.99090909,18.3772598 9.03486139,19.4212121 10.3215933,19.4212121 L17.054681,19.4212121 C18.3414129,19.4212121 19.3853652,18.3772598 19.3853652,17.0905279 L19.3853652,14.5008788 Z M22.4929441,7.50882621 C22.4929441,7.22558334 22.2582572,6.99089639 21.9750143,6.99089639 L17.8315757,6.99089639 C17.5483328,6.99089639 17.3136459,7.22558334 17.3136459,7.50882621 C17.3136459,7.64640132 17.3702945,7.77588378 17.4674063,7.87299562 L18.8917133,9.29730263 L13.6153033,14.5737127 C13.5667473,14.6222686 13.5343767,14.6951025 13.5343767,14.7598437 C13.5343767,14.8245849 13.5667473,14.8974188 13.6153033,14.9459748 L14.5378657,15.8685372 C14.5864217,15.9170932 14.6592556,15.9494638 14.7239968,15.9494638 C14.788738,15.9494638 14.8615719,15.9170932 14.9101278,15.8685372 L20.1865379,10.5921272 L21.6108449,12.0164342 C21.7079567,12.113546 21.8374392,12.1701946 21.9750143,12.1701946 C22.2582572,12.1701946 22.4929441,11.9355077 22.4929441,11.6522648 L22.4929441,7.50882621 Z" id="" fill="#FFFFFF"></path>
    </g>
</svg>