
<svg width="18px" height="18px" viewBox="2 2 18 18" version="1.1" xmlns="http://www.w3.org/2000/svg" xmlns:xlink="http://www.w3.org/1999/xlink">
    <!-- Generator: Sketch 3.8.3 (29802) - http://www.bohemiancoding.com/sketch -->
    <desc>Created with Sketch.</desc>
    <defs></defs>
    <g id="Page-1" stroke="none" stroke-width="1" fill="none" fill-rule="evenodd" transform="translate(3.101804, 3.102080)" stroke-linejoin="round">
        <path d="M14.230626,0.158388571 L0.382738268,14.0075105" id="Stroke-1" stroke="#D4D4D4" stroke-width="2"></path>
        <path d="M0.382738268,0.244480423 L14.230626,14.0936024" id="Stroke-2" stroke="#D4D4D4" stroke-width="2"></path>
    </g>
</svg>