
<svg width="20px" height="20px" viewBox="15 262 20 20" version="1.1" xmlns="http://www.w3.org/2000/svg" xmlns:xlink="http://www.w3.org/1999/xlink">
    <!-- Generator: Sketch 3.8.3 (29802) - http://www.bohemiancoding.com/sketch -->
    <desc>Created with Sketch.</desc>
    <defs></defs>
    <g id="icon/category/small-forum" stroke="none" stroke-width="1" fill="none" fill-rule="evenodd" transform="translate(15.000000, 262.000000)">
        <path d="M12.1744737,11.8630288 C12.1744737,11.8630288 10.7572105,11.8693269 9.22673684,11.8693269 C7.69626316,11.8693269 6.69963158,10.5014423 6.69963158,8.98432692 L6.69963158,6.853125 L3.12473684,6.853125 C2.22805263,6.853125 1.5,7.59201923 1.5,8.50211538 L1.5,11.8000962 C1.5,12.7101923 2.22805263,13.4490865 3.12473684,13.4490865 L3.70736842,13.4490865 L3.68652632,16.2759615 L6.69252632,13.4490865 L10.8074211,13.4490865 C11.7041053,13.4490865 12.2171053,12.8167308 12.1744737,11.8630288 Z M8.05910526,5.64899038 C8.05910526,4.73889423 8.78715789,4 9.68384211,4 L17.3665263,4 C18.2632105,4 18.9912632,4.73889423 18.9912632,5.64899038 L18.9912632,8.94697115 C18.9912632,9.85711538 18.2632105,10.5960096 17.3665263,10.5960096 L16.7838947,10.5960096 L16.8047368,13.4228365 L13.7987368,10.5960096 L9.68384211,10.5960096 C8.78715789,10.5960096 8.05910526,9.85711538 8.05910526,8.94697115 L8.05910526,5.64899038 Z" id="Fill-17" fill="#F867A0"></path>
        <rect id="bounds" x="0" y="0" width="20" height="20"></rect>
    </g>
</svg>