
<svg width="20px" height="20px" viewBox="0 0 20 20" version="1.1" xmlns="http://www.w3.org/2000/svg" xmlns:xlink="http://www.w3.org/1999/xlink">
    <!-- Generator: Sketch 39.1 (31720) - http://www.bohemiancoding.com/sketch -->
    <desc>Created with Sketch.</desc>
    <defs></defs>
    <g id="icon/category/destinations" stroke="none" stroke-width="1" fill="none" fill-rule="evenodd">
        <rect id="Rectangle-7" x="0" y="0" width="20" height="20"></rect>
        <path d="M9.9802,2.72984587 C10.8794981,2.72984587 11.7119626,2.95227497 12.4775935,3.39703784 C13.2432244,3.84184837 13.8484452,4.44706909 14.293208,5.21265233 C14.7380186,5.97828324 14.9604,6.81074775 14.9604,7.71009354 C14.9604,8.56563042 14.7465039,9.37745374 14.3187593,10.1454682 L10.2573068,17.5100834 C10.1989585,17.6121452 10.1065737,17.6632 9.9802,17.6632 C9.85382633,17.6632 9.7614415,17.6121452 9.70314086,17.5100834 L5.64168842,10.1454682 C5.21389614,9.41630495 5,8.6045293 5,7.71009354 C5,6.81074775 5.22238143,5.97828324 5.66719197,5.21265233 C6.1120025,4.44706909 6.71717555,3.84184837 7.48280646,3.39703784 C8.24843737,2.95227497 9.08090188,2.72984587 9.9802,2.72984587 L9.9802,2.72984587 Z M9.9802,9.57671514 C10.4954671,9.57671514 10.9354153,9.39566376 11.2999969,9.03351333 C11.6645785,8.6713629 11.8468693,8.23022297 11.8468693,7.71009354 C11.8468693,7.18991644 11.6658179,6.7487765 11.3036675,6.38662608 C10.9414694,6.02447565 10.5003294,5.84342427 9.9802,5.84342427 C9.46007057,5.84342427 9.01893064,6.02447565 8.65678021,6.38662608 C8.29462978,6.7487765 8.11353073,7.18991644 8.11353073,7.71009354 C8.11353073,8.23022297 8.29582154,8.6713629 8.66040314,9.03351333 C9.02498475,9.39566376 9.46493293,9.57671514 9.9802,9.57671514 L9.9802,9.57671514 Z" id="icon-small-destinations" fill="#01B1E7"></path>
    </g>
</svg>